<deployment-project plugin="plugin.apptool" plugin-version="1.0">
  <configuration build-checksum="1101821842" file="D:\KSP\Study\Houston\Projects\Reading Experiment\Reading Code\reading_analysis\expt2\Parsing Code\Saccade Selection.prj" location="D:\KSP\Study\Houston\Projects\Reading Experiment\Reading Code\reading_analysis\expt2\Parsing Code" name="Saccade Selection" target="target.mlapps" target-name="Package App">
    <param.appname>Saccade Selection</param.appname>
    <param.authnamewatermark>Krish Prahalad</param.authnamewatermark>
    <param.email>pskrishn@central.uh.edu</param.email>
    <param.company>University of Houston</param.company>
    <param.icon />
    <param.icons />
    <param.summary />
    <param.description />
    <param.screenshot />
    <param.version>1.0</param.version>
    <param.products.name />
    <param.products.id />
    <param.products.version />
    <param.platforms />
    <param.output>D:\KSP\Study\Houston\Projects\Reading Experiment\Reading Code\reading_analysis\expt2\Parsing Code</param.output>
    <param.guid>21580abb-084b-43da-afae-db3584a97b29</param.guid>
    <unset>
      <param.icon />
      <param.icons />
      <param.summary />
      <param.description />
      <param.screenshot />
      <param.version />
      <param.products.name />
      <param.products.id />
      <param.products.version />
      <param.platforms />
      <param.output />
    </unset>
    <fileset.main>
      <file>${PROJECT_ROOT}\GUI_func.m</file>
    </fileset.main>
    <fileset.depfun>
      <file>${PROJECT_ROOT}\GUI_func.fig</file>
    </fileset.depfun>
    <fileset.resources />
    <fileset.package />
    <build-deliverables>
      <file location="D:\KSP\Study\Houston\Projects\Reading Experiment\Reading Code\reading_analysis\expt2" name="Parsing Code" optional="false">D:\KSP\Study\Houston\Projects\Reading Experiment\Reading Code\reading_analysis\expt2\Parsing Code</file>
    </build-deliverables>
    <workflow />
    <matlab>
      <root>C:\Program Files\MATLAB\R2018b</root>
      <toolboxes />
    </matlab>
    <platform>
      <unix>false</unix>
      <mac>false</mac>
      <windows>true</windows>
      <win2k>false</win2k>
      <winxp>false</winxp>
      <vista>false</vista>
      <linux>false</linux>
      <solaris>false</solaris>
      <osver>10.0</osver>
      <os32>false</os32>
      <os64>true</os64>
      <arch>win64</arch>
      <matlab>true</matlab>
    </platform>
  </configuration>
</deployment-project>