,Subject_ID,PRL_Position,fwd_per_word
0,S01,inferior,1.4839031548589585
1,S01,right,1.1250770982285063
2,S01,left,1.6357473287932776
3,S02,inferior,1.1828239931024314
4,S02,right,1.4595114153527522
5,S02,left,1.5537737804983065
6,S03,inferior,1.5171327270610142
7,S03,right,1.621102117453894
8,S03,left,1.8692774311919795
9,S04,inferior,1.1255560956905881
10,S04,right,1.2215611568239548
11,S04,left,1.4275123288449552
12,S05,inferior,1.3005580290269645
13,S05,right,1.2844574195836589
14,S05,left,1.7663740532516312
15,S06,inferior,1.178494027297378
16,S06,right,1.0823068654748675
17,S06,left,1.343036187395448
