Saccade Duration(ms)	Saccade Amplitude H Forward	Saccade Amplitude H Backward	Saccade Amplitude V	Peak Velocity
18	24.700000000000003	 	13.599999999999994	106
28	93.10000000000002	 	4.400000000000006	275
23	53.20000000000002	 	0.8000000000000114	201
26	57.60000000000002	 	3.9000000000000057	162
50	137.0	 	2.3000000000000114	352
23	49.0	 	2.4000000000000057	184
23	51.10000000000002	 	5.700000000000017	188
30	71.39999999999998	 	0.8000000000000114	196
23	48.80000000000007	 	0.8000000000000114	160
25	57.0	 	0.5	161
86	 	-575.5	56.79999999999998	618
25	 	-43.20000000000002	8.299999999999983	185
25	60.5	 	6.899999999999977	184
40	71.89999999999998	 	3.0999999999999943	321
24	54.099999999999966	 	4.299999999999983	204
128	135.59999999999997	 	10.299999999999983	531
29	56.700000000000045	 	6.900000000000006	156
21	38.39999999999998	 	1.1000000000000227	148
14	21.799999999999955	 	0.6999999999999886	87
27	94.30000000000007	 	6.0	271
14	20.200000000000045	 	1.8000000000000114	85
62	79.29999999999995	 	0.9000000000000057	152
104	 	-630.0	56.20000000000002	662
280	 	-11.599999999999994	3.099999999999966	514
72	144.10000000000002	 	3.3000000000000114	285
22	30.0	 	1.099999999999966	167
35	129.5	 	0.6000000000000227	344
51	144.5	 	3.8999999999999773	308
49	130.10000000000002	 	7.5	323
45	99.89999999999998	 	3.400000000000034	251
112	 	-705.1	68.20000000000005	631
21	 	-20.299999999999983	4.2000000000000455	91
26	81.9	 	3.8999999999999773	294
45	139.00000000000003	 	1.6999999999999886	429
46	112.80000000000001	 	5.5	324
26	60.00000000000006	 	0.6999999999999886	196
22	49.69999999999993	 	2.2999999999999545	175
29	82.79999999999995	 	4.5	238
26	71.39999999999998	 	2.599999999999966	233
87	 	-604.1999999999999	56.30000000000001	557
20	 	-23.100000000000023	1.0	106
49	144.60000000000002	 	3.1999999999999886	303
51	167.20000000000005	 	7.899999999999977	426
24	58.39999999999998	 	2.5	232
27	65.30000000000007	 	7.100000000000023	200
30	77.80000000000007	 	0.5	225
26	60.0	 	2.6999999999999886	206
37	113.5	 	4.0	245
96	 	-693.0999999999999	59.0	678
31	 	-25.100000000000023	5.5	156
49	137.20000000000002	 	3.8999999999999773	340
28	94.59999999999997	 	7.699999999999989	297
23	53.200000000000045	 	2.599999999999966	191
24	56.80000000000001	 	1.6999999999999886	188
38	96.39999999999998	 	7.300000000000011	264
16	 	-14.5	0.10000000000002274	77
56	167.80000000000007	 	4.599999999999966	331
20	37.799999999999955	 	0.6999999999999886	146
45	70.29999999999995	 	3.8999999999999773	242
18	13.299999999999955	 	2.599999999999966	78
130	 	-727.6	64.00000000000006	695
29	 	-7.899999999999977	1.2000000000000455	129
53	151.09999999999997	 	8.099999999999966	335
30	 	-20.5	0.5999999999999659	128
33	141.7	 	7.500000000000057	409
23	39.099999999999966	 	7.600000000000023	185
32	118.69999999999999	 	3.400000000000034	279
24	53.09999999999991	 	3.400000000000034	202
44	71.60000000000002	 	0.5999999999999659	246
22	 	-21.799999999999955	0.19999999999998863	120
84	 	-535.8	47.80000000000007	574
31	 	-28.599999999999994	14.600000000000023	184
23	14.0	 	1.900000000000091	113
45	121.30000000000001	 	9.200000000000045	359
23	33.89999999999998	 	1.599999999999909	158
22	43.19999999999999	 	0.39999999999997726	179
22	36.900000000000034	 	6.899999999999977	163
51	154.40000000000003	 	16.0	367
25	48.0	 	2.5	161
43	89.10000000000002	 	1.0	284
36	115.09999999999991	 	6.399999999999977	261
29	 	-21.200000000000045	2.5	154
39	53.80000000000007	 	9.100000000000023	206
11	14.800000000000068	 	3.2000000000000455	62
